SPI/SPI_Read/read/collection/collection/.Xil/Vivado-13608-DESKTOP-RB7D48T/hw_ila_data_1/zip_work/waveform.vcd
$date
        2023-Feb-26 12:20:30
$end
$version
        Vivado v2018.3 (64-bit)
$end
$timescale
        1ps
$end
$scope module dut $end
$var reg 1 " collection_inst/rst $end
$var reg 1 # collection_inst/read_in $end
$var reg 1 $ collection_inst/write_in $end
$var reg 1 % collection_inst/direct_fifo $end
$var reg 1 & collection_inst/direct_wr_en_buf $end
$var reg 1 ' collection_inst/direct_rd_en_buf $end
$var reg 1 ( collection_inst/DO $end
$var reg 1 ) collection_inst/DI $end
$var reg 1 * collection_inst/SCK $end
$var reg 1 + collection_inst/CSbar $end
$var reg 1 , collection_inst/wren $end
$var reg 1 - collection_inst/rden $end
$var reg 1 . collection_inst/valid_from_flash $end
$var reg 1 / collection_inst/valid_to_flash $end
$var reg 1 0 collection_inst/last_to_flash $end
$var reg 1 1 collection_inst/ready_from_flash $end
$var reg 1 2 collection_inst/wr_en_buf $end
$var reg 1 3 collection_inst/rd_en_buf $end
$var reg 1 4 collection_inst/buf_empty $end
$var reg 1 5 collection_inst/buf_full $end
$var reg 8 6 collection_inst/numByte_read_wp_reg [7:0] $end
$var reg 8 > collection_inst/direct_buf_in [7:0] $end
$var reg 8 F collection_inst/direct_buf_out [7:0] $end
$var reg 8 N collection_inst/buf_in [7:0] $end
$var reg 8 V collection_inst/buf_out [7:0] $end
$var reg 8 ^ collection_inst/command [7:0] $end
$var reg 8 f collection_inst/numByte_read [7:0] $end
$var reg 8 n collection_inst/flash_to_buf_data [7:0] $end
$var reg 8 v collection_inst/buf_to_flash_data [7:0] $end
$var reg 8 ~ collection_inst/flash_to_buf_data_wp [7:0] $end
$var reg 8 (" collection_inst/buf_to_flash_data_wp [7:0] $end
$var reg 24 0" collection_inst/address [23:0] $end
$var reg 5 H" collection_inst/ns [4:0] $end
$var reg 5 M" collection_inst/ps [4:0] $end
$var reg 1 R" _TRIGGER $end
$var reg 1 S" _WINDOW $end
$var reg 1 T" _GAP $end
$upscope $end
$enddefinitions $end
#0
$dumpvars
0"
0#
0$
0%
0&
0'
1(
1)
1*
1+
0,
0-
0.
0/
10
01
02
03
14
05
b100 6
b110011 >
b0 F
b10 N
b110011 V
b0 ^
b100 f
b10 n
b110011 v
b10 ~
b110011 ("
b0 0"
b0 H"
b0 M"
0R"
1S"
0T"
$end
#395
1#
b1100 H"
#396
0#
b11 ^
b1101 H"
b1100 M"
#397
0+
b0 ^
b1101 M"
#400
0)
0*
1R"
#402
1*
#404
0*
#406
1*
#408
0*
#410
1*
#412
0*
#414
1*
#416
0*
#418
1*
#420
0*
#422
1*
#424
1)
0*
#426
1*
#428
0*
#430
1*
#432
0)
0*
#434
1*
#436
0*
#438
1*
#440
0*
#442
1*
#444
0*
#446
1*
#448
0*
#450
1*
#452
0*
#454
1*
#456
0*
#458
1*
#460
0*
#462
1*
#464
0*
#466
1*
#468
0*
#470
1*
#472
0*
#474
1*
#476
0*
#478
1*
#480
0*
#482
1*
#484
0*
#486
1*
#488
0*
#490
1*
#492
0*
#494
1*
#496
0*
#498
1*
#500
0*
#502
1*
#504
0*
#506
1*
#508
0*
#510
1*
#512
0*
#514
1*
#516
0*
#518
1*
#520
0*
#522
1*
#524
0*
#526
1*
#528
0*
#529
0(
#530
1*
b100 N
b100 n
b100 ~
#532
0*
#534
1*
b1000 N
b1000 n
b1000 ~
#536
0*
#537
1(
#538
1*
b10001 N
b10001 n
b10001 ~
#540
0*
#542
1*
b100011 N
b100011 n
b100011 ~
#544
0*
#545
0(
#546
1*
b1000110 N
b1000110 n
b1000110 ~
#548
0*
#550
1*
b10001100 N
b10001100 n
b10001100 ~
#552
0*
#553
1(
#554
1*
b11001 N
b11001 n
b11001 ~
#556
0*
#558
1*
1,
1.
12
b110011 N
b110011 n
b110011 ~
#559
0,
0.
00
02
04
#560
0*
#561
0(
#562
1*
b1100110 N
b1100110 n
b1100110 ~
#564
0*
#566
1*
b11001100 N
b11001100 n
b11001100 ~
#568
0*
#569
1(
#570
1*
b10011001 N
b10011001 n
b10011001 ~
#572
0*
#574
1*
b110011 N
b110011 n
b110011 ~
#576
0*
#577
0(
#578
1*
b1100110 N
b1100110 n
b1100110 ~
#580
0*
#582
1*
b11001100 N
b11001100 n
b11001100 ~
#584
0*
#585
1(
#586
1*
b10011001 N
b10011001 n
b10011001 ~
#588
0*
#590
1*
1,
1.
12
b110011 N
b110011 n
b110011 ~
#591
0,
0.
02
#592
0*
#593
0(
#594
1*
b1100110 N
b1100110 n
b1100110 ~
#596
0*
#598
1*
b11001100 N
b11001100 n
b11001100 ~
#600
0*
#601
1(
#602
1*
b10011001 N
b10011001 n
b10011001 ~
#604
0*
#606
1*
b110011 N
b110011 n
b110011 ~
#608
0*
#609
0(
#610
1*
b1100110 N
b1100110 n
b1100110 ~
#612
0*
#614
1*
b11001100 N
b11001100 n
b11001100 ~
#616
0*
#617
1(
#618
1*
b10011001 N
b10011001 n
b10011001 ~
#620
0*
#622
1*
1,
1.
12
b110011 N
b110011 n
b110011 ~
#623
0,
0.
02
#624
0*
#625
0(
#626
1*
b1100110 N
b1100110 n
b1100110 ~
#628
0*
#630
1*
b11001100 N
b11001100 n
b11001100 ~
#632
0*
#633
1(
#634
1*
b10011001 N
b10011001 n
b10011001 ~
#636
0*
#638
1*
b110011 N
b110011 n
b110011 ~
#640
0*
#641
0(
#642
1*
b1100110 N
b1100110 n
b1100110 ~
#644
0*
#646
1*
b11001100 N
b11001100 n
b11001100 ~
#648
0*
#649
1(
#650
1*
b10011001 N
b10011001 n
b10011001 ~
#652
0*
#654
1*
1,
1.
12
b110011 N
b110011 n
b110011 ~
#655
1+
0,
0.
02
15
b0 H"
#656
b0 M"
