SPI/SPI_Read/read/collection/collection/.Xil/Vivado-8876-DESKTOP-RB7D48T/hw_ila_data_1/zip_work/waveform.vcd
$date
        2023-Feb-28 14:44:36
$end
$version
        Vivado v2018.3 (64-bit)
$end
$timescale
        1ps
$end
$scope module dut $end
$var reg 1 " collection_inst/rst $end
$var reg 1 # collection_inst/read_in $end
$var reg 1 $ collection_inst/write_in $end
$var reg 1 % collection_inst/res1 $end
$var reg 1 & collection_inst/wren_1 $end
$var reg 1 ' collection_inst/res2 $end
$var reg 1 ( collection_inst/DO $end
$var reg 1 ) collection_inst/DI $end
$var reg 1 * collection_inst/SCK $end
$var reg 1 + collection_inst/CSbar $end
$var reg 1 , collection_inst/wren_2 $end
$var reg 1 - collection_inst/rden_1 $end
$var reg 1 . collection_inst/valid_from_flash $end
$var reg 1 / collection_inst/valid_to_flash $end
$var reg 1 0 collection_inst/last_to_flash $end
$var reg 1 1 collection_inst/ready_from_flash $end
$var reg 1 2 collection_inst/wren $end
$var reg 1 3 collection_inst/rden $end
$var reg 1 4 collection_inst/buf_empty $end
$var reg 1 5 collection_inst/buf_full $end
$var reg 8 6 collection_inst/numByte_read_wp_reg [7:0] $end
$var reg 8 > collection_inst/res3 [7:0] $end
$var reg 8 F collection_inst/res4 [7:0] $end
$var reg 8 N collection_inst/buf_in_1 [7:0] $end
$var reg 8 V collection_inst/buf_out [7:0] $end
$var reg 8 ^ collection_inst/command [7:0] $end
$var reg 8 f collection_inst/numByte_read [7:0] $end
$var reg 8 n collection_inst/buf_in [7:0] $end
$var reg 8 v collection_inst/buf_to_flash_data [7:0] $end
$var reg 8 ~ collection_inst/flash_to_buf_data_wp [7:0] $end
$var reg 8 (" collection_inst/buf_to_flash_data_wp [7:0] $end
$var reg 24 0" collection_inst/address [23:0] $end
$var reg 5 H" collection_inst/ns [4:0] $end
$var reg 5 M" collection_inst/ps [4:0] $end
$var reg 1 R" _TRIGGER $end
$var reg 1 S" _WINDOW $end
$var reg 1 T" _GAP $end
$upscope $end
$enddefinitions $end
#0
$dumpvars
0"
0#
0$
0%
0&
0'
1(
0)
1*
1+
0,
0-
0.
0/
10
01
02
03
14
05
b0 6
b0 >
b0 F
b0 N
b0 V
b0 ^
b0 f
b0 n
b0 v
b0 ~
b0 ("
b0 0"
b0 H"
b0 M"
0R"
1S"
0T"
$end
#394
b110101 6
#395
1#
b110101 f
b1100 H"
#396
0#
b11 ^
b1101 H"
b1100 M"
#397
0+
b0 ^
b1101 M"
#400
0*
1R"
#402
1*
#404
0*
#406
1*
#408
0*
#410
1*
#412
0*
#414
1*
#416
0*
#418
1*
#420
0*
#422
1*
#424
1)
0*
#426
1*
#428
0*
#430
1*
#432
0)
0*
#434
1*
#436
0*
#438
1*
#440
0*
#442
1*
#444
0*
#446
1*
#448
0*
#450
1*
#452
0*
#454
1*
#456
0*
#458
1*
#460
0*
#462
1*
#464
0*
#466
1*
#468
0*
#470
1*
#472
0*
#474
1*
#476
0*
#478
1*
#480
0*
#482
1*
#484
0*
#486
1*
#488
0*
#490
1*
#492
0*
#494
1*
#496
0*
#498
1*
#500
0*
#502
1*
#504
0*
#506
1*
#508
0*
#510
1*
#512
0*
#514
1*
#516
0*
#518
1*
#520
0*
#522
1*
#524
0*
#526
1*
#528
0*
#529
0(
#530
1*
#532
0*
#534
1*
#536
0*
#538
1*
#540
0*
#542
1*
#544
0*
#546
1*
#548
0*
#550
1*
#552
0*
#554
1*
#556
0*
#557
1(
#558
1&
1*
1,
1.
12
b1 N
b1 n
b1 ~
#559
0&
0,
0.
00
02
04
#560
0*
#562
1*
b11 N
b11 n
b11 ~
#564
0*
#565
0(
#566
1*
b110 N
b110 n
b110 ~
#568
0*
#569
1(
#570
1*
b1101 N
b1101 n
b1101 ~
#572
0*
#574
1*
b11011 N
b11011 n
b11011 ~
#576
0*
#577
0(
#578
1*
b110110 N
b110110 n
b110110 ~
#580
0*
#582
1*
b1101100 N
b1101100 n
b1101100 ~
#584
0*
#585
1(
#586
1*
b11011001 N
b11011001 n
b11011001 ~
#588
0*
#590
1&
1*
1,
1.
12
b10110011 N
b10110011 n
b10110011 ~
#591
0&
0,
0.
02
#592
0*
#593
0(
#594
1*
b1100110 N
b1100110 n
b1100110 ~
#596
0*
#598
1*
b11001100 N
b11001100 n
b11001100 ~
#600
0*
#602
1*
b10011000 N
b10011000 n
b10011000 ~
#604
0*
#606
1*
b110000 N
b110000 n
b110000 ~
#608
0*
#610
1*
b1100000 N
b1100000 n
b1100000 ~
#612
0*
#614
1*
b11000000 N
b11000000 n
b11000000 ~
#616
0*
#618
1*
b10000000 N
b10000000 n
b10000000 ~
#620
0*
#622
1&
1*
1,
1.
12
b0 N
b0 n
b0 ~
#623
0&
0,
0.
02
#624
0*
#626
1*
#628
0*
#630
1*
#632
0*
#634
1*
#636
0*
#638
1*
#640
0*
#642
1*
#644
0*
#646
1*
#648
0*
#650
1*
#652
0*
#654
1&
1*
1,
1.
12
#655
0&
0,
0.
02
#656
0*
#658
1*
#660
0*
#662
1*
#664
0*
#666
1*
#668
0*
#670
1*
#672
0*
#674
1*
#676
0*
#678
1*
#680
0*
#682
1*
#684
0*
#686
1&
1*
1,
1.
12
#687
0&
0,
0.
02
#688
0*
#690
1*
#692
0*
#694
1*
#696
0*
#698
1*
#700
0*
#701
1(
#702
1*
b1 N
b1 n
b1 ~
#704
0*
#705
0(
#706
1*
b10 N
b10 n
b10 ~
#708
0*
#710
1*
b100 N
b100 n
b100 ~
#712
0*
#713
1(
#714
1*
b1001 N
b1001 n
b1001 ~
#716
0*
#718
1&
1*
1,
1.
12
b10011 N
b10011 n
b10011 ~
#719
0&
0,
0.
02
#720
0*
#721
0(
#722
1*
b100110 N
b100110 n
b100110 ~
#724
0*
#726
1*
b1001100 N
b1001100 n
b1001100 ~
#728
0*
#730
1*
b10011000 N
b10011000 n
b10011000 ~
#732
0*
#734
1*
b110000 N
b110000 n
b110000 ~
#736
0*
#738
1*
b1100000 N
b1100000 n
b1100000 ~
#740
0*
#742
1*
b11000000 N
b11000000 n
b11000000 ~
#744
0*
#746
1*
b10000000 N
b10000000 n
b10000000 ~
#748
0*
#749
1(
#750
1&
1*
1,
1.
12
b1 N
b1 n
b1 ~
#751
0&
0,
0.
02
#752
0*
#753
0(
#754
1*
b10 N
b10 n
b10 ~
#756
0*
#758
1*
b100 N
b100 n
b100 ~
#760
0*
#762
1*
b1000 N
b1000 n
b1000 ~
#764
0*
#765
1(
#766
1*
b10001 N
b10001 n
b10001 ~
#768
0*
#769
0(
#770
1*
b100010 N
b100010 n
b100010 ~
#772
0*
#774
1*
b1000100 N
b1000100 n
b1000100 ~
#776
0*
#778
1*
b10001000 N
b10001000 n
b10001000 ~
#780
0*
#782
1&
1*
1,
1.
12
b10000 N
b10000 n
b10000 ~
#783
0&
0,
0.
02
#784
0*
#786
1*
b100000 N
b100000 n
b100000 ~
#788
0*
#790
1*
b1000000 N
b1000000 n
b1000000 ~
#792
0*
#794
1*
b10000000 N
b10000000 n
b10000000 ~
#796
0*
#798
1*
b0 N
b0 n
b0 ~
#800
0*
#802
1*
#804
0*
#806
1*
#808
0*
#810
1*
#812
0*
#814
1&
1*
1,
1.
12
#815
0&
0,
0.
02
#816
0*
#817
1(
#818
1*
b1 N
b1 n
b1 ~
#820
0*
#821
0(
#822
1*
b10 N
b10 n
b10 ~
#824
0*
#826
1*
b100 N
b100 n
b100 ~
#828
0*
#829
1(
#830
1*
b1001 N
b1001 n
b1001 ~
#832
0*
#833
0(
#834
1*
b10010 N
b10010 n
b10010 ~
#836
0*
#838
1*
b100100 N
b100100 n
b100100 ~
#840
0*
#841
1(
#842
1*
b1001001 N
b1001001 n
b1001001 ~
#844
0*
#846
1&
1*
1,
1.
12
b10010011 N
b10010011 n
b10010011 ~
#847
0&
0,
0.
02
#848
0*
#849
0(
#850
1*
b100110 N
b100110 n
b100110 ~
#852
0*
#854
1*
b1001100 N
b1001100 n
b1001100 ~
#856
0*
#858
1*
b10011000 N
b10011000 n
b10011000 ~
#860
0*
#862
1*
b110000 N
b110000 n
b110000 ~
#864
0*
#866
1*
b1100000 N
b1100000 n
b1100000 ~
#868
0*
#870
1*
b11000000 N
b11000000 n
b11000000 ~
#872
0*
#874
1*
b10000000 N
b10000000 n
b10000000 ~
#876
0*
#877
1(
#878
1&
1*
1,
1.
12
b1 N
b1 n
b1 ~
#879
0&
0,
0.
02
#880
0*
#881
0(
#882
1*
b10 N
b10 n
b10 ~
#884
0*
#885
1(
#886
1*
b101 N
b101 n
b101 ~
#888
0*
#889
0(
#890
1*
b1010 N
b1010 n
b1010 ~
#892
0*
#893
1(
#894
1*
b10101 N
b10101 n
b10101 ~
#896
0*
#897
0(
#898
1*
b101010 N
b101010 n
b101010 ~
#900
0*
#902
1*
b1010100 N
b1010100 n
b1010100 ~
#904
0*
#906
1*
b10101000 N
b10101000 n
b10101000 ~
#908
0*
#910
1&
1*
1,
1.
12
b1010000 N
b1010000 n
b1010000 ~
#911
0&
0,
0.
02
#912
0*
#914
1*
b10100000 N
b10100000 n
b10100000 ~
#916
0*
#918
1*
b1000000 N
b1000000 n
b1000000 ~
#920
0*
#922
1*
b10000000 N
b10000000 n
b10000000 ~
#924
0*
#926
1*
b0 N
b0 n
b0 ~
#928
0*
#930
1*
#932
0*
#934
1*
#936
0*
#938
1*
#940
0*
#942
1&
1*
1,
1.
12
#943
0&
0,
0.
02
#944
0*
#946
1*
#948
0*
#950
1*
#952
0*
#954
1*
#956
0*
#957
1(
#958
1*
b1 N
b1 n
b1 ~
#960
0*
#961
0(
#962
1*
b10 N
b10 n
b10 ~
#964
0*
#966
1*
b100 N
b100 n
b100 ~
#968
0*
#969
1(
#970
1*
b1001 N
b1001 n
b1001 ~
#972
0*
#974
1&
1*
1,
1.
12
b10011 N
b10011 n
b10011 ~
#975
0&
0,
0.
02
#976
0*
#977
0(
#978
1*
b100110 N
b100110 n
b100110 ~
#980
0*
#982
1*
b1001100 N
b1001100 n
b1001100 ~
#984
0*
#986
1*
b10011000 N
b10011000 n
b10011000 ~
#988
0*
#990
1*
b110000 N
b110000 n
b110000 ~
#992
0*
#994
1*
b1100000 N
b1100000 n
b1100000 ~
#996
0*
#998
1*
b11000000 N
b11000000 n
b11000000 ~
#1000
0*
#1001
1(
#1002
1*
b10000001 N
b10000001 n
b10000001 ~
#1004
0*
#1005
0(
#1006
1&
1*
1,
1.
12
b10 N
b10 n
b10 ~
#1007
0&
0,
0.
02
#1008
0*
#1010
1*
b100 N
b100 n
b100 ~
#1012
0*
#1014
1*
b1000 N
b1000 n
b1000 ~
#1016
0*
#1018
1*
b10000 N
b10000 n
b10000 ~
#1020
0*
#1021
1(
#1022
1*
b100001 N
b100001 n
b100001 ~
#1024
0*
#1025
0(
#1026
1*
b1000010 N
b1000010 n
b1000010 ~
#1028
0*
#1030
1*
b10000100 N
b10000100 n
b10000100 ~
#1032
0*
#1034
1*
b1000 N
b1000 n
b1000 ~
#1036
0*
#1038
1&
1*
1,
1.
12
b10000 N
b10000 n
b10000 ~
#1039
0&
0,
0.
02
15
b0 H"
#1040
0*
b0 M"
#1042
1*
b100000 N
b100000 n
b100000 ~
#1044
0*
#1046
1*
b1000000 N
b1000000 n
b1000000 ~
#1048
0*
#1050
1*
b10000000 N
b10000000 n
b10000000 ~
#1052
0*
#1054
1*
b0 N
b0 n
b0 ~
#1056
0*
#1058
1*
#1060
0*
#1062
1*
#1064
0*
#1066
1*
#1068
0*
#1070
1*
1.
#1071
0.
#1072
0*
#1074
1*
#1076
0*
#1077
1(
#1078
1*
b1 N
b1 n
b1 ~
#1080
0*
#1082
1*
b11 N
b11 n
b11 ~
#1084
0*
#1085
0(
#1086
1*
b110 N
b110 n
b110 ~
#1088
0*
#1090
1*
b1100 N
b1100 n
b1100 ~
#1092
0*
#1094
1*
b11000 N
b11000 n
b11000 ~
#1096
0*
#1097
1(
#1098
1*
b110001 N
b110001 n
b110001 ~
#1100
0*
#1102
1*
1.
b1100011 N
b1100011 n
b1100011 ~
#1103
0.
#1104
0*
#1106
1*
b11000111 N
b11000111 n
b11000111 ~
#1108
0*
#1109
0(
#1110
1*
b10001110 N
b10001110 n
b10001110 ~
#1112
0*
#1114
1*
b11100 N
b11100 n
b11100 ~
#1116
0*
#1118
1*
b111000 N
b111000 n
b111000 ~
#1120
0*
#1121
1(
#1122
1*
b1110001 N
b1110001 n
b1110001 ~
#1124
0*
#1125
0(
#1126
1*
b11100010 N
b11100010 n
b11100010 ~
#1128
0*
#1129
1(
#1130
1*
b11000101 N
b11000101 n
b11000101 ~
#1132
0*
#1133
0(
#1134
1*
1.
b10001010 N
b10001010 n
b10001010 ~
#1135
0.
#1136
0*
#1138
1*
b10100 N
b10100 n
b10100 ~
#1140
0*
#1142
1*
b101000 N
b101000 n
b101000 ~
#1144
0*
#1145
1(
#1146
1*
b1010001 N
b1010001 n
b1010001 ~
#1148
0*
#1150
1*
b10100011 N
b10100011 n
b10100011 ~
#1152
0*
#1153
0(
#1154
1*
b1000110 N
b1000110 n
b1000110 ~
#1156
0*
#1158
1*
b10001100 N
b10001100 n
b10001100 ~
#1160
0*
#1162
1*
b11000 N
b11000 n
b11000 ~
#1164
0*
#1166
1*
1.
b110000 N
b110000 n
b110000 ~
#1167
0.
#1168
0*
#1170
1*
b1100000 N
b1100000 n
b1100000 ~
#1172
0*
#1174
1*
b11000000 N
b11000000 n
b11000000 ~
#1176
0*
#1178
1*
b10000000 N
b10000000 n
b10000000 ~
#1180
0*
#1182
1*
b0 N
b0 n
b0 ~
#1184
0*
#1186
1*
#1188
0*
#1190
1*
#1192
0*
#1194
1*
#1196
0*
#1198
1*
1.
#1199
0.
#1200
0*
#1202
1*
#1204
0*
#1206
1*
#1208
0*
#1209
1(
#1210
1*
b1 N
b1 n
b1 ~
#1212
0*
#1214
1*
b11 N
b11 n
b11 ~
#1216
0*
#1217
0(
#1218
1*
b110 N
b110 n
b110 ~
#1220
0*
#1222
1*
b1100 N
b1100 n
b1100 ~
#1224
0*
#1225
1(
#1226
1*
b11001 N
b11001 n
b11001 ~
#1228
0*
#1230
1*
1.
b110011 N
b110011 n
b110011 ~
#1231
0.
#1232
0*
#1233
0(
#1234
1*
b1100110 N
b1100110 n
b1100110 ~
#1236
0*
#1238
1*
b11001100 N
b11001100 n
b11001100 ~
#1240
0*
#1242
1*
b10011000 N
b10011000 n
b10011000 ~
#1244
0*
#1246
1*
b110000 N
b110000 n
b110000 ~
#1248
0*
#1250
1*
b1100000 N
b1100000 n
b1100000 ~
#1252
0*
#1254
1*
b11000000 N
b11000000 n
b11000000 ~
#1256
0*
#1257
1(
#1258
1*
b10000001 N
b10000001 n
b10000001 ~
#1260
0*
#1261
0(
#1262
1*
1.
b10 N
b10 n
b10 ~
#1263
0.
#1264
0*
#1266
1*
b100 N
b100 n
b100 ~
#1268
0*
#1269
1(
#1270
1*
b1001 N
b1001 n
b1001 ~
#1272
0*
#1273
0(
#1274
1*
b10010 N
b10010 n
b10010 ~
#1276
0*
#1278
1*
b100100 N
b100100 n
b100100 ~
#1280
0*
#1282
1*
b1001000 N
b1001000 n
b1001000 ~
#1284
0*
#1286
1*
b10010000 N
b10010000 n
b10010000 ~
#1288
0*
#1290
1*
b100000 N
b100000 n
b100000 ~
#1292
0*
#1293
1(
#1294
1*
1.
b1000001 N
b1000001 n
b1000001 ~
#1295
0.
#1296
0*
#1297
0(
#1298
1*
b10000010 N
b10000010 n
b10000010 ~
#1300
0*
#1302
1*
b100 N
b100 n
b100 ~
#1304
0*
#1306
1*
b1000 N
b1000 n
b1000 ~
#1308
0*
#1310
1*
b10000 N
b10000 n
b10000 ~
#1312
0*
#1314
1*
b100000 N
b100000 n
b100000 ~
#1316
0*
#1318
1*
b1000000 N
b1000000 n
b1000000 ~
#1320
0*
#1321
1(
#1322
1*
b10000001 N
b10000001 n
b10000001 ~
#1324
0*
#1325
0(
#1326
1*
1.
b10 N
b10 n
b10 ~
#1327
0.
#1328
0*
#1330
1*
b100 N
b100 n
b100 ~
#1332
0*
#1334
1*
b1000 N
b1000 n
b1000 ~
#1336
0*
#1338
1*
b10000 N
b10000 n
b10000 ~
#1340
0*
#1341
1(
#1342
1*
b100001 N
b100001 n
b100001 ~
#1344
0*
#1345
0(
#1346
1*
b1000010 N
b1000010 n
b1000010 ~
#1348
0*
#1350
1*
b10000100 N
b10000100 n
b10000100 ~
#1352
0*
#1353
1(
#1354
1*
b1001 N
b1001 n
b1001 ~
#1356
0*
#1358
1*
1.
b10011 N
b10011 n
b10011 ~
#1359
0.
#1360
0*
#1361
0(
#1362
1*
b100110 N
b100110 n
b100110 ~
#1364
0*
#1366
1*
b1001100 N
b1001100 n
b1001100 ~
#1368
0*
#1370
1*
b10011000 N
b10011000 n
b10011000 ~
#1372
0*
#1374
1*
b110000 N
b110000 n
b110000 ~
#1376
0*
#1378
1*
b1100000 N
b1100000 n
b1100000 ~
#1380
0*
#1382
1*
b11000000 N
b11000000 n
b11000000 ~
#1384
0*
#1386
1*
b10000000 N
b10000000 n
b10000000 ~
#1388
0*
#1389
1(
#1390
1*
1.
b1 N
b1 n
b1 ~
#1391
0.
#1392
0*
#1393
0(
#1394
1*
b10 N
b10 n
b10 ~
#1396
0*
#1398
1*
b100 N
b100 n
b100 ~
#1400
0*
#1402
1*
b1000 N
b1000 n
b1000 ~
#1404
0*
#1405
1(
#1406
1*
b10001 N
b10001 n
b10001 ~
#1408
0*
#1409
0(
#1410
1*
b100010 N
b100010 n
b100010 ~
#1412
0*
#1414
1*
b1000100 N
b1000100 n
b1000100 ~
#1416
0*
#1418
1*
b10001000 N
b10001000 n
b10001000 ~
#1420
0*
#1421
1(
#1422
1*
1.
b10001 N
b10001 n
b10001 ~
#1423
0.
#1424
0*
#1425
0(
#1426
1*
b100010 N
b100010 n
b100010 ~
#1428
0*
#1430
1*
b1000100 N
b1000100 n
b1000100 ~
#1432
0*
#1434
1*
b10001000 N
b10001000 n
b10001000 ~
#1436
0*
#1438
1*
b10000 N
b10000 n
b10000 ~
#1440
0*
#1442
1*
b100000 N
b100000 n
b100000 ~
#1444
0*
#1446
1*
b1000000 N
b1000000 n
b1000000 ~
#1448
0*
#1450
1*
b10000000 N
b10000000 n
b10000000 ~
#1452
0*
#1454
1*
1.
b0 N
b0 n
b0 ~
#1455
0.
#1456
0*
#1457
1(
#1458
1*
b1 N
b1 n
b1 ~
#1460
0*
#1461
0(
#1462
1*
b10 N
b10 n
b10 ~
#1464
0*
#1466
1*
b100 N
b100 n
b100 ~
#1468
0*
#1469
1(
#1470
1*
b1001 N
b1001 n
b1001 ~
#1472
0*
#1473
0(
#1474
1*
b10010 N
b10010 n
b10010 ~
#1476
0*
#1478
1*
b100100 N
b100100 n
b100100 ~
#1480
0*
#1481
1(
#1482
1*
b1001001 N
b1001001 n
b1001001 ~
#1484
0*
#1486
1*
1.
b10010011 N
b10010011 n
b10010011 ~
#1487
0.
#1488
0*
#1490
1*
b100111 N
b100111 n
b100111 ~
#1492
0*
#1493
0(
#1494
1*
b1001110 N
b1001110 n
b1001110 ~
#1496
0*
#1498
1*
b10011100 N
b10011100 n
b10011100 ~
#1500
0*
#1502
1*
b111000 N
b111000 n
b111000 ~
#1504
0*
#1506
1*
b1110000 N
b1110000 n
b1110000 ~
#1508
0*
#1510
1*
b11100000 N
b11100000 n
b11100000 ~
#1512
0*
#1514
1*
b11000000 N
b11000000 n
b11000000 ~
#1516
0*
#1518
1*
1.
b10000000 N
b10000000 n
b10000000 ~
#1519
0.
#1520
0*
#1522
1*
b0 N
b0 n
b0 ~
#1524
0*
#1526
1*
#1528
0*
#1530
1*
#1532
0*
#1533
1(
#1534
1*
b1 N
b1 n
b1 ~
#1536
0*
#1537
0(
#1538
1*
b10 N
b10 n
b10 ~
#1540
0*
#1542
1*
b100 N
b100 n
b100 ~
#1544
0*
#1546
1*
b1000 N
b1000 n
b1000 ~
#1548
0*
#1550
1*
1.
b10000 N
b10000 n
b10000 ~
#1551
0.
#1552
0*
#1554
1*
b100000 N
b100000 n
b100000 ~
#1556
0*
#1558
1*
b1000000 N
b1000000 n
b1000000 ~
#1560
0*
#1562
1*
b10000000 N
b10000000 n
b10000000 ~
#1564
0*
#1566
1*
b0 N
b0 n
b0 ~
#1568
0*
#1570
1*
#1572
0*
#1574
1*
#1576
0*
#1578
1*
#1580
0*
#1582
1*
1.
#1583
0.
#1584
0*
#1585
1(
#1586
1*
b1 N
b1 n
b1 ~
#1588
0*
#1590
1*
b11 N
b11 n
b11 ~
#1592
0*
#1594
1*
b111 N
b111 n
b111 ~
#1596
0*
#1597
0(
#1598
1*
b1110 N
b1110 n
b1110 ~
#1600
0*
#1601
1(
#1602
1*
b11101 N
b11101 n
b11101 ~
#1604
0*
#1606
1*
b111011 N
b111011 n
b111011 ~
#1608
0*
#1610
1*
b1110111 N
b1110111 n
b1110111 ~
#1612
0*
#1614
1*
1.
b11101111 N
b11101111 n
b11101111 ~
#1615
0.
#1616
0*
#1618
1*
b11011111 N
b11011111 n
b11011111 ~
#1620
0*
#1622
1*
b10111111 N
b10111111 n
b10111111 ~
#1624
0*
#1626
1*
b1111111 N
b1111111 n
b1111111 ~
#1628
0*
#1630
1*
b11111111 N
b11111111 n
b11111111 ~
#1632
0*
#1633
0(
#1634
1*
b11111110 N
b11111110 n
b11111110 ~
#1636
0*
#1638
1*
b11111100 N
b11111100 n
b11111100 ~
#1640
0*
#1641
1(
#1642
1*
b11111001 N
b11111001 n
b11111001 ~
#1644
0*
#1645
0(
#1646
1*
1.
b11110010 N
b11110010 n
b11110010 ~
#1647
0.
#1648
0*
#1650
1*
b11100100 N
b11100100 n
b11100100 ~
#1652
0*
#1654
1*
b11001000 N
b11001000 n
b11001000 ~
#1656
0*
#1658
1*
b10010000 N
b10010000 n
b10010000 ~
#1660
0*
#1661
1(
#1662
1*
b100001 N
b100001 n
b100001 ~
#1664
0*
#1666
1*
b1000011 N
b1000011 n
b1000011 ~
#1668
0*
#1670
1*
b10000111 N
b10000111 n
b10000111 ~
#1672
0*
#1674
1*
b1111 N
b1111 n
b1111 ~
#1676
0*
#1678
1*
1.
b11111 N
b11111 n
b11111 ~
#1679
0.
#1680
0*
#1682
1*
b111111 N
b111111 n
b111111 ~
#1684
0*
#1686
1*
b1111111 N
b1111111 n
b1111111 ~
#1688
0*
#1690
1*
b11111111 N
b11111111 n
b11111111 ~
#1692
0*
#1694
1*
#1696
0*
#1698
1*
#1700
0*
#1702
1*
#1704
0*
#1706
1*
#1708
0*
#1710
1*
1.
#1711
0.
#1712
0*
#1713
0(
#1714
1*
b11111110 N
b11111110 n
b11111110 ~
#1716
0*
#1718
1*
b11111100 N
b11111100 n
b11111100 ~
#1720
0*
#1722
1*
b11111000 N
b11111000 n
b11111000 ~
#1724
0*
#1725
1(
#1726
1*
b11110001 N
b11110001 n
b11110001 ~
#1728
0*
#1729
0(
#1730
1*
b11100010 N
b11100010 n
b11100010 ~
#1732
0*
#1734
1*
b11000100 N
b11000100 n
b11000100 ~
#1736
0*
#1737
1(
#1738
1*
b10001001 N
b10001001 n
b10001001 ~
#1740
0*
#1742
1*
1.
b10011 N
b10011 n
b10011 ~
#1743
0.
#1744
0*
#1745
0(
#1746
1*
b100110 N
b100110 n
b100110 ~
#1748
0*
#1750
1*
b1001100 N
b1001100 n
b1001100 ~
#1752
0*
#1754
1*
b10011000 N
b10011000 n
b10011000 ~
#1756
0*
#1758
1*
b110000 N
b110000 n
b110000 ~
#1760
0*
#1762
1*
b1100000 N
b1100000 n
b1100000 ~
#1764
0*
#1766
1*
b11000000 N
b11000000 n
b11000000 ~
#1768
0*
#1769
1(
#1770
1*
b10000001 N
b10000001 n
b10000001 ~
#1772
0*
#1774
1*
1.
b11 N
b11 n
b11 ~
#1775
0.
#1776
0*
#1777
0(
#1778
1*
b110 N
b110 n
b110 ~
#1780
0*
#1782
1*
b1100 N
b1100 n
b1100 ~
#1784
0*
#1785
1(
#1786
1*
b11001 N
b11001 n
b11001 ~
#1788
0*
#1789
0(
#1790
1*
b110010 N
b110010 n
b110010 ~
#1792
0*
#1794
1*
b1100100 N
b1100100 n
b1100100 ~
#1796
0*
#1798
1*
b11001000 N
b11001000 n
b11001000 ~
#1800
0*
#1802
1*
b10010000 N
b10010000 n
b10010000 ~
#1804
0*
#1806
1*
1.
b100000 N
b100000 n
b100000 ~
#1807
0.
#1808
0*
#1810
1*
b1000000 N
b1000000 n
b1000000 ~
#1812
0*
#1814
1*
b10000000 N
b10000000 n
b10000000 ~
#1816
0*
#1818
1*
b0 N
b0 n
b0 ~
#1820
0*
#1822
1*
#1824
0*
#1826
1*
#1828
0*
#1830
1*
#1832
0*
#1834
1*
#1836
0*
#1837
1(
#1838
1*
1.
b1 N
b1 n
b1 ~
#1839
0.
#1840
0*
#1842
1*
b11 N
b11 n
b11 ~
#1844
0*
#1845
0(
#1846
1*
b110 N
b110 n
b110 ~
#1848
0*
#1849
1(
#1850
1*
b1101 N
b1101 n
b1101 ~
#1852
0*
#1854
1*
b11011 N
b11011 n
b11011 ~
#1856
0*
#1857
0(
#1858
1*
b110110 N
b110110 n
b110110 ~
#1860
0*
#1862
1*
b1101100 N
b1101100 n
b1101100 ~
#1864
0*
#1865
1(
#1866
1*
b11011001 N
b11011001 n
b11011001 ~
#1868
0*
#1870
1*
1.
b10110011 N
b10110011 n
b10110011 ~
#1871
0.
#1872
0*
#1873
0(
#1874
1*
b1100110 N
b1100110 n
b1100110 ~
#1876
0*
#1877
1(
#1878
1*
b11001101 N
b11001101 n
b11001101 ~
#1880
0*
#1881
0(
#1882
1*
b10011010 N
b10011010 n
b10011010 ~
#1884
0*
#1886
1*
b110100 N
b110100 n
b110100 ~
#1888
0*
#1890
1*
b1101000 N
b1101000 n
b1101000 ~
#1892
0*
#1894
1*
b11010000 N
b11010000 n
b11010000 ~
#1896
0*
#1897
1(
#1898
1*
b10100001 N
b10100001 n
b10100001 ~
#1900
0*
#1902
1*
1.
b1000011 N
b1000011 n
b1000011 ~
#1903
0.
#1904
0*
#1905
0(
#1906
1*
b10000110 N
b10000110 n
b10000110 ~
#1908
0*
#1909
1(
#1910
1*
b1101 N
b1101 n
b1101 ~
#1912
0*
#1914
1*
b11011 N
b11011 n
b11011 ~
#1916
0*
#1917
0(
#1918
1*
b110110 N
b110110 n
b110110 ~
#1920
0*
#1922
1*
b1101100 N
b1101100 n
b1101100 ~
#1924
0*
#1926
1*
b11011000 N
b11011000 n
b11011000 ~
#1928
0*
#1929
1(
#1930
1*
b10110001 N
b10110001 n
b10110001 ~
#1932
0*
#1933
0(
#1934
1*
1.
b1100010 N
b1100010 n
b1100010 ~
#1935
0.
#1936
0*
#1938
1*
b11000100 N
b11000100 n
b11000100 ~
#1940
0*
#1942
1*
b10001000 N
b10001000 n
b10001000 ~
#1944
0*
#1946
1*
b10000 N
b10000 n
b10000 ~
#1948
0*
#1950
1*
b100000 N
b100000 n
b100000 ~
#1952
0*
#1954
1*
b1000000 N
b1000000 n
b1000000 ~
#1956
0*
#1958
1*
b10000000 N
b10000000 n
b10000000 ~
#1960
0*
#1961
1(
#1962
1*
b1 N
b1 n
b1 ~
#1964
0*
#1965
0(
#1966
1*
1.
b10 N
b10 n
b10 ~
#1967
0.
#1968
0*
#1970
1*
b100 N
b100 n
b100 ~
#1972
0*
#1974
1*
b1000 N
b1000 n
b1000 ~
#1976
0*
#1977
1(
#1978
1*
b10001 N
b10001 n
b10001 ~
#1980
0*
#1982
1*
b100011 N
b100011 n
b100011 ~
#1984
0*
#1985
0(
#1986
1*
b1000110 N
b1000110 n
b1000110 ~
#1988
0*
#1990
1*
b10001100 N
b10001100 n
b10001100 ~
#1992
0*
#1993
1(
#1994
1*
b11001 N
b11001 n
b11001 ~
#1996
0*
#1998
1*
1.
b110011 N
b110011 n
b110011 ~
#1999
0.
#2000
0*
#2001
0(
#2002
1*
b1100110 N
b1100110 n
b1100110 ~
#2004
0*
#2005
1(
#2006
1*
b11001101 N
b11001101 n
b11001101 ~
#2008
0*
#2010
1*
b10011011 N
b10011011 n
b10011011 ~
#2012
0*
#2013
0(
#2014
1*
b110110 N
b110110 n
b110110 ~
#2016
0*
#2018
1*
b1101100 N
b1101100 n
b1101100 ~
#2020
0*
#2021
1(
#2022
1*
b11011001 N
b11011001 n
b11011001 ~
#2024
0*
#2025
0(
#2026
1*
b10110010 N
b10110010 n
b10110010 ~
#2028
0*
#2030
1*
1.
b1100100 N
b1100100 n
b1100100 ~
#2031
0.
#2032
0*
#2034
1*
b11001000 N
b11001000 n
b11001000 ~
#2036
0*
#2037
1(
#2038
1*
b10010001 N
b10010001 n
b10010001 ~
#2040
0*
#2042
1*
b100011 N
b100011 n
b100011 ~
#2044
0*
#2045
0(
#2046
1*
b1000110 N
b1000110 n
b1000110 ~
#2048
0*
#2050
1*
b10001100 N
b10001100 n
b10001100 ~
#2052
0*
#2054
1*
b11000 N
b11000 n
b11000 ~
#2056
0*
#2057
1(
#2058
1*
b110001 N
b110001 n
b110001 ~
#2060
0*
#2061
0(
#2062
1*
1.
b1100010 N
b1100010 n
b1100010 ~
#2063
0.
#2064
0*
#2066
1*
b11000100 N
b11000100 n
b11000100 ~
#2068
0*
#2070
1*
b10001000 N
b10001000 n
b10001000 ~
#2072
0*
#2074
1*
b10000 N
b10000 n
b10000 ~
#2076
0*
#2078
1*
b100000 N
b100000 n
b100000 ~
#2080
0*
#2082
1*
b1000000 N
b1000000 n
b1000000 ~
#2084
0*
#2086
1*
b10000000 N
b10000000 n
b10000000 ~
#2088
0*
#2089
1(
#2090
1*
b1 N
b1 n
b1 ~
#2092
0*
#2093
0(
