SPI/SPI_Read/read/collection/collection/.Xil/Vivado-16056-DESKTOP-P49DHPK/hw_ila_data_1/zip_work/waveform.vcd
$date
        2023-Jun-04 17:27:24
$end
$version
        Vivado v2019.1 (64-bit)
$end
$timescale
        1ps
$end
$scope module dut $end
$var reg 1 " collection_inst/rst $end
$var reg 1 # collection_inst/read_in $end
$var reg 1 $ collection_inst/write_in $end
$var reg 1 % collection_inst/res1 $end
$var reg 1 & collection_inst/wren_1 $end
$var reg 1 ' collection_inst/res2 $end
$var reg 1 ( collection_inst/DO $end
$var reg 1 ) collection_inst/DI $end
$var reg 1 * collection_inst/SCK $end
$var reg 1 + collection_inst/CSbar $end
$var reg 1 , collection_inst/wren_2 $end
$var reg 1 - collection_inst/rden_1 $end
$var reg 1 . collection_inst/valid_from_flash $end
$var reg 1 / collection_inst/valid_to_flash $end
$var reg 1 0 collection_inst/last_to_flash $end
$var reg 1 1 collection_inst/ready_from_flash $end
$var reg 1 2 collection_inst/wren $end
$var reg 1 3 collection_inst/rden $end
$var reg 1 4 collection_inst/buf_empty $end
$var reg 1 5 collection_inst/buf_full $end
$var reg 8 6 collection_inst/numByte_read_wp_reg [7:0] $end
$var reg 8 > collection_inst/res3 [7:0] $end
$var reg 8 F collection_inst/res4 [7:0] $end
$var reg 8 N collection_inst/buf_in_1 [7:0] $end
$var reg 8 V collection_inst/buf_out [7:0] $end
$var reg 8 ^ collection_inst/command [7:0] $end
$var reg 8 f collection_inst/numByte_read [7:0] $end
$var reg 8 n collection_inst/buf_in [7:0] $end
$var reg 8 v collection_inst/buf_to_flash_data [7:0] $end
$var reg 8 ~ collection_inst/flash_to_buf_data_wp [7:0] $end
$var reg 8 (" collection_inst/buf_to_flash_data_wp [7:0] $end
$var reg 24 0" collection_inst/address [23:0] $end
$var reg 5 H" collection_inst/ns [4:0] $end
$var reg 5 M" collection_inst/ps [4:0] $end
$var reg 1 R" _TRIGGER $end
$var reg 1 S" _WINDOW $end
$var reg 1 T" _GAP $end
$upscope $end
$enddefinitions $end
#0
$dumpvars
0"
0#
0$
0%
0&
0'
1(
1)
1*
1+
0,
0-
0.
0/
00
01
02
03
04
05
b101 6
b0 >
b0 F
b0 N
b0 V
b0 ^
b101 f
b0 n
b0 v
b0 ~
b0 ("
b1011111110 0"
b0 H"
b0 M"
0R"
1S"
0T"
$end
#395
1#
b1100 H"
#396
0#
b11 ^
b1101 H"
b1100 M"
#397
0+
b0 ^
b1101 M"
#399
0(
#400
0)
0*
1R"
#402
1*
#404
0*
#406
1*
#408
0*
#410
1*
#412
0*
#414
1*
#416
0*
#418
1*
#420
0*
#422
1*
#424
1)
0*
#426
1*
#428
0*
#430
1*
#432
0)
0*
#434
1*
#436
0*
#438
1*
#440
0*
#442
1*
#444
0*
#446
1*
#448
0*
#450
1*
#452
0*
#454
1*
#456
0*
#458
1*
#460
0*
#462
1*
#464
0*
#466
1*
#468
0*
#470
1*
#472
0*
#474
1*
#476
0*
#478
1*
#480
0*
#482
1*
#484
0*
#486
1*
#488
1)
0*
#490
1*
#492
0)
0*
#494
1*
#496
1)
0*
#498
1*
#500
0*
#502
1*
#504
0*
#506
1*
#508
0*
#510
1*
#512
0*
#514
1*
#516
0*
#518
1*
#520
0*
#522
1*
#524
0)
0*
#526
1*
#528
0*
#529
1(
#530
1*
b1 N
b1 n
b1 ~
#532
0*
#534
1*
b11 N
b11 n
b11 ~
#536
0*
#537
0(
#538
1*
b110 N
b110 n
b110 ~
#540
0*
#542
1*
b1100 N
b1100 n
b1100 ~
#544
0*
#546
1*
b11000 N
b11000 n
b11000 ~
#548
0*
#549
1(
#550
1*
b110001 N
b110001 n
b110001 ~
#552
0*
#553
0(
#554
1*
b1100010 N
b1100010 n
b1100010 ~
#556
0*
#557
1(
#558
1&
1*
1,
1.
12
b11000101 N
b11000101 n
b11000101 ~
#559
0&
0,
0.
02
#560
0*
#562
1*
b10001011 N
b10001011 n
b10001011 ~
#564
0*
#566
1*
b10111 N
b10111 n
b10111 ~
#568
0*
#569
0(
#570
1*
b101110 N
b101110 n
b101110 ~
#572
0*
#574
1*
b1011100 N
b1011100 n
b1011100 ~
#576
0*
#578
1*
b10111000 N
b10111000 n
b10111000 ~
#580
0*
#581
1(
#582
1*
b1110001 N
b1110001 n
b1110001 ~
#584
0*
#586
1*
b11100011 N
b11100011 n
b11100011 ~
#588
0*
#589
0(
#590
1&
1*
1,
1.
12
b11000110 N
b11000110 n
b11000110 ~
#591
0&
0,
0.
02
#592
0*
#593
1(
#594
1*
b10001101 N
b10001101 n
b10001101 ~
#596
0*
#598
1*
b11011 N
b11011 n
b11011 ~
#600
0*
#602
1*
b110111 N
b110111 n
b110111 ~
#604
0*
#606
1*
b1101111 N
b1101111 n
b1101111 ~
#608
0*
#610
1*
b11011111 N
b11011111 n
b11011111 ~
#612
0*
#614
1*
b10111111 N
b10111111 n
b10111111 ~
#616
0*
#618
1*
b1111111 N
b1111111 n
b1111111 ~
#620
0*
#622
1&
1*
1,
1.
12
b11111111 N
b11111111 n
b11111111 ~
#623
0&
0,
0.
02
#624
0*
#626
1*
#628
0*
#630
1*
#632
0*
#634
1*
#636
0*
#638
1*
#640
0*
#642
1*
#644
0*
#646
1*
#648
0*
#650
1*
#652
0*
#654
1&
1*
1,
1.
12
#655
0&
0,
0.
02
#656
0*
#658
1*
#660
0*
#662
1*
#664
0*
#666
1*
#668
0*
#670
1*
#672
0*
#674
1*
#676
0*
#678
1*
#680
0*
#682
1*
#684
0*
#686
1&
1*
1,
1.
12
#687
0&
1+
0,
0.
02
b0 H"
#688
b0 M"
